<svg id="Plano_bloco" data-name="Plano bloco" xmlns="http://www.w3.org/2000/svg" width="255" height="406" viewBox="0 0 255 406">
  <metadata><?xpacket begin="﻿" id="W5M0MpCehiHzreSzNTczkc9d"?>
<x:xmpmeta xmlns:x="adobe:ns:meta/" x:xmptk="Adobe XMP Core 5.6-c142 79.160924, 2017/07/13-01:06:39        ">
   <rdf:RDF xmlns:rdf="http://www.w3.org/1999/02/22-rdf-syntax-ns#">
      <rdf:Description rdf:about=""/>
   </rdf:RDF>
</x:xmpmeta>
                                                                                                    
                                                                                                    
                                                                                                    
                                                                                                    
                                                                                                    
                                                                                                    
                                                                                                    
                                                                                                    
                                                                                                    
                                                                                                    
                                                                                                    
                                                                                                    
                                                                                                    
                                                                                                    
                                                                                                    
                                                                                                    
                                                                                                    
                                                                                                    
                                                                                                    
                                                                                                    
                           
<?xpacket end="w"?></metadata>
<defs>
    <style>
      .cls-1 {
        fill: #efefef;
      }

      .cls-2 {
        fill: #b5b5b5;
      }

      .cls-2, .cls-7 {
        fill-rule: evenodd;
      }

      .cls-3, .cls-6 {
        font-size: 18px;
        font-family: "Berlin Sans FB Demi";
        font-weight: 700;
      }

      .cls-3 {
        fill: #ffac39;
      }

      .cls-4 {
        font-size: 36px;
      }

      .cls-5 {
        fill: #00bd9c;
      }

      .cls-6 {
        fill: #fff;
      }

      .cls-7 {
        fill: #00987d;
      }
    </style>
  </defs>
  <rect id="Retângulo_Arredondado_6" data-name="Retângulo Arredondado 6" class="cls-1" x="1" width="254" height="406" rx="5" ry="5"/>
  <g id="linha">
    <path id="Forma_2" data-name="Forma 2" class="cls-2" d="M1,161.6v-1.336H255V161.6H1Z"/>
    <path id="Forma_2-2" data-name="Forma 2" class="cls-2" d="M1,212.349v-1.336H255v1.336H1Z"/>
    <path id="Forma_2-3" data-name="Forma 2" class="cls-2" d="M1,264.434V263.1H255v1.335H1Z"/>
    <path id="linha-2" data-name="linha" class="cls-2" d="M1,316.52v-1.336H255v1.336H1Z"/>
  </g>
  <g id="valor">
    <text id="_49" data-name="$49" class="cls-3" transform="translate(48.428 131.749) scale(2.159 2.157)">$<tspan class="cls-4">49</tspan></text>
    <text id="_99" data-name="99" class="cls-3" transform="translate(156.713 109.046) scale(2.159 2.157)">99</text>
  </g>
  <rect id="Retângulo_Arredondado_7" data-name="Retângulo Arredondado 7" class="cls-5" width="255" height="59" rx="5" ry="5"/>
  <text id="BÁSICO" class="cls-6" transform="translate(81.723 38.338) scale(1.507 1.506)">BÁSICO</text>
  <path id="Forma_1" data-name="Forma 1" class="cls-7" d="M0,58.763V54.756H254v4.007H0Z"/>
</svg>
